b: 
 [[0.70710678]
 [0.70710678]]


A_0: 
 [[1.000000e+00 0.000000e+00]
 [6.123234e-17 1.000000e+00]]


Classical Solution for A_0: 
 [[0.70710678]
 [0.70710678]]


Figure_S3.py:21: DeprecationWarning: The package qiskit.aqua.operators is deprecated. It was moved/refactored to qiskit.opflow (pip install qiskit-terra). For more information see <https://github.com/Qiskit/qiskit-aqua/blob/master/README.md#migration-guide>
  return EigsQPE(MatrixOperator(matrix=matrix),
/user/ajbecerr/.local/lib/python3.8/site-packages/qiskit/aqua/operators/legacy/op_converter.py:90: DeprecationWarning: The variable qiskit.aqua.aqua_globals is deprecated. It was moved/refactored to qiskit.utils.algorithm_globals (pip install qiskit-terra). For more information see <https://github.com/Qiskit/qiskit-aqua/blob/master/README.md#migration-guide>
  num_processes=aqua_globals.num_processes)
/user/ajbecerr/.local/lib/python3.8/site-packages/qiskit/aqua/components/initial_states/custom.py:79: DeprecationWarning: The Custom class is deprecated as of Aqua 0.9 and will be removed no earlier than 3 months after the release date. Instead, all algorithms and circuits accept a plain QuantumCircuit. Custom(state_vector=vector) is the same as a circuit where the ``initialize(vector/np.linalg.norm(vector))`` method has been called.
  super().__init__()
/user/ajbecerr/.local/lib/python3.8/site-packages/qiskit/aqua/components/initial_states/custom.py:151: DeprecationWarning: The StateVectorCircuit class is deprecated as of Qiskit Aqua 0.9.0 and will be removed no earlier than 3 months after the release. If you need to initialize a circuit, use the QuantumCircuit.initialize or QuantumCircuit.isometry methods. For a parameterized initialization, try the qiskit.ml.circuit.library.RawFeatureVector class.
  svc = StateVectorCircuit(self._state_vector)
/user/ajbecerr/.local/lib/python3.8/site-packages/qiskit/aqua/quantum_instance.py:135: DeprecationWarning: The class qiskit.aqua.QuantumInstance is deprecated. It was moved/refactored to qiskit.utils.QuantumInstance (pip install qiskit-terra). For more information see <https://github.com/Qiskit/qiskit-aqua/blob/master/README.md#migration-guide>
  warn_class('aqua.QuantumInstance',
Input matrix is not hermitian. It will be expanded to a hermitian matrix automatically.
Quantum Solution for A_0: 
 [0.70711-0.j 0.70711-0.j]


Fidelity of Quantum Solution for A_0: 
 1.0000000000000004


A_1: 
 [[ 0.98078528  0.19509032]
 [-0.19509032  0.98078528]]


Classical Solution for A_1: 
 [[0.55557023]
 [0.83146961]]


/user/ajbecerr/.local/lib/python3.8/site-packages/qiskit/aqua/components/initial_states/custom.py:79: DeprecationWarning: The Custom class is deprecated as of Aqua 0.9 and will be removed no earlier than 3 months after the release date. Instead, all algorithms and circuits accept a plain QuantumCircuit. Custom(state_vector=vector) is the same as a circuit where the ``initialize(vector/np.linalg.norm(vector))`` method has been called.
  super().__init__()
/user/ajbecerr/.local/lib/python3.8/site-packages/qiskit/aqua/components/initial_states/custom.py:151: DeprecationWarning: The StateVectorCircuit class is deprecated as of Qiskit Aqua 0.9.0 and will be removed no earlier than 3 months after the release. If you need to initialize a circuit, use the QuantumCircuit.initialize or QuantumCircuit.isometry methods. For a parameterized initialization, try the qiskit.ml.circuit.library.RawFeatureVector class.
  svc = StateVectorCircuit(self._state_vector)
Input matrix is not hermitian. It will be expanded to a hermitian matrix automatically.
Quantum Solution for A_1: 
 [0.77301+0.j 0.63439+0.j]


Fidelity of Quantum Solution for A_1: 
 0.9157335555095567


A_2: 
 [[ 0.83146961  0.55557023]
 [-0.55557023  0.83146961]]


Classical Solution for A_2: 
 [[0.19509032]
 [0.98078528]]


/user/ajbecerr/.local/lib/python3.8/site-packages/qiskit/aqua/components/initial_states/custom.py:79: DeprecationWarning: The Custom class is deprecated as of Aqua 0.9 and will be removed no earlier than 3 months after the release date. Instead, all algorithms and circuits accept a plain QuantumCircuit. Custom(state_vector=vector) is the same as a circuit where the ``initialize(vector/np.linalg.norm(vector))`` method has been called.
  super().__init__()
/user/ajbecerr/.local/lib/python3.8/site-packages/qiskit/aqua/components/initial_states/custom.py:151: DeprecationWarning: The StateVectorCircuit class is deprecated as of Qiskit Aqua 0.9.0 and will be removed no earlier than 3 months after the release. If you need to initialize a circuit, use the QuantumCircuit.initialize or QuantumCircuit.isometry methods. For a parameterized initialization, try the qiskit.ml.circuit.library.RawFeatureVector class.
  svc = StateVectorCircuit(self._state_vector)
Input matrix is not hermitian. It will be expanded to a hermitian matrix automatically.
Quantum Solution for A_2: 
 [-0.88192+0.j -0.4714 +0.j]


Fidelity of Quantum Solution for A_2: 
 0.4024582461155981


A_3: 
 [[ 0.38268343  0.92387953]
 [-0.92387953  0.38268343]]


Classical Solution for A_3: 
 [[-0.38268343]
 [ 0.92387953]]


/user/ajbecerr/.local/lib/python3.8/site-packages/qiskit/aqua/components/initial_states/custom.py:79: DeprecationWarning: The Custom class is deprecated as of Aqua 0.9 and will be removed no earlier than 3 months after the release date. Instead, all algorithms and circuits accept a plain QuantumCircuit. Custom(state_vector=vector) is the same as a circuit where the ``initialize(vector/np.linalg.norm(vector))`` method has been called.
  super().__init__()
/user/ajbecerr/.local/lib/python3.8/site-packages/qiskit/aqua/components/initial_states/custom.py:151: DeprecationWarning: The StateVectorCircuit class is deprecated as of Qiskit Aqua 0.9.0 and will be removed no earlier than 3 months after the release. If you need to initialize a circuit, use the QuantumCircuit.initialize or QuantumCircuit.isometry methods. For a parameterized initialization, try the qiskit.ml.circuit.library.RawFeatureVector class.
  svc = StateVectorCircuit(self._state_vector)
Input matrix is not hermitian. It will be expanded to a hermitian matrix automatically.
Quantum Solution for A_3: 
 [-0.98079+0.j -0.19509+0.j]


Fidelity of Quantum Solution for A_3: 
 0.03806070696088376


A_4: 
 [[-0.38268343  0.92387953]
 [-0.92387953 -0.38268343]]


Classical Solution for A_4: 
 [[-0.92387953]
 [ 0.38268343]]


/user/ajbecerr/.local/lib/python3.8/site-packages/qiskit/aqua/components/initial_states/custom.py:79: DeprecationWarning: The Custom class is deprecated as of Aqua 0.9 and will be removed no earlier than 3 months after the release date. Instead, all algorithms and circuits accept a plain QuantumCircuit. Custom(state_vector=vector) is the same as a circuit where the ``initialize(vector/np.linalg.norm(vector))`` method has been called.
  super().__init__()
/user/ajbecerr/.local/lib/python3.8/site-packages/qiskit/aqua/components/initial_states/custom.py:151: DeprecationWarning: The StateVectorCircuit class is deprecated as of Qiskit Aqua 0.9.0 and will be removed no earlier than 3 months after the release. If you need to initialize a circuit, use the QuantumCircuit.initialize or QuantumCircuit.isometry methods. For a parameterized initialization, try the qiskit.ml.circuit.library.RawFeatureVector class.
  svc = StateVectorCircuit(self._state_vector)
Input matrix is not hermitian. It will be expanded to a hermitian matrix automatically.
Quantum Solution for A_4: 
 [ 0.98079-0.j -0.19509+0.j]


Fidelity of Quantum Solution for A_4: 
 0.9619392930391165


A_5: 
 [[-0.98078528  0.19509032]
 [-0.19509032 -0.98078528]]


Classical Solution for A_5: 
 [[-0.83146961]
 [-0.55557023]]


/user/ajbecerr/.local/lib/python3.8/site-packages/qiskit/aqua/components/initial_states/custom.py:79: DeprecationWarning: The Custom class is deprecated as of Aqua 0.9 and will be removed no earlier than 3 months after the release date. Instead, all algorithms and circuits accept a plain QuantumCircuit. Custom(state_vector=vector) is the same as a circuit where the ``initialize(vector/np.linalg.norm(vector))`` method has been called.
  super().__init__()
/user/ajbecerr/.local/lib/python3.8/site-packages/qiskit/aqua/components/initial_states/custom.py:151: DeprecationWarning: The StateVectorCircuit class is deprecated as of Qiskit Aqua 0.9.0 and will be removed no earlier than 3 months after the release. If you need to initialize a circuit, use the QuantumCircuit.initialize or QuantumCircuit.isometry methods. For a parameterized initialization, try the qiskit.ml.circuit.library.RawFeatureVector class.
  svc = StateVectorCircuit(self._state_vector)
Input matrix is not hermitian. It will be expanded to a hermitian matrix automatically.
Quantum Solution for A_5: 
 [-0.77301+0.j  0.63439-0.j]


Fidelity of Quantum Solution for A_5: 
 0.08426644449044325


A_6: 
 [[-0.55557023 -0.83146961]
 [ 0.83146961 -0.55557023]]


Classical Solution for A_6: 
 [[ 0.19509032]
 [-0.98078528]]


/user/ajbecerr/.local/lib/python3.8/site-packages/qiskit/aqua/components/initial_states/custom.py:79: DeprecationWarning: The Custom class is deprecated as of Aqua 0.9 and will be removed no earlier than 3 months after the release date. Instead, all algorithms and circuits accept a plain QuantumCircuit. Custom(state_vector=vector) is the same as a circuit where the ``initialize(vector/np.linalg.norm(vector))`` method has been called.
  super().__init__()
/user/ajbecerr/.local/lib/python3.8/site-packages/qiskit/aqua/components/initial_states/custom.py:151: DeprecationWarning: The StateVectorCircuit class is deprecated as of Qiskit Aqua 0.9.0 and will be removed no earlier than 3 months after the release. If you need to initialize a circuit, use the QuantumCircuit.initialize or QuantumCircuit.isometry methods. For a parameterized initialization, try the qiskit.ml.circuit.library.RawFeatureVector class.
  svc = StateVectorCircuit(self._state_vector)
Input matrix is not hermitian. It will be expanded to a hermitian matrix automatically.
Quantum Solution for A_6: 
 [-0.29028+0.j  0.95694-0.j]


Fidelity of Quantum Solution for A_6: 
 0.9903934943668432


A_7: 
 [[ 0.70710678 -0.70710678]
 [ 0.70710678  0.70710678]]


Classical Solution for A_7: 
 [[ 1.00000000e+00]
 [-3.91900786e-16]]


/user/ajbecerr/.local/lib/python3.8/site-packages/qiskit/aqua/components/initial_states/custom.py:79: DeprecationWarning: The Custom class is deprecated as of Aqua 0.9 and will be removed no earlier than 3 months after the release date. Instead, all algorithms and circuits accept a plain QuantumCircuit. Custom(state_vector=vector) is the same as a circuit where the ``initialize(vector/np.linalg.norm(vector))`` method has been called.
  super().__init__()
/user/ajbecerr/.local/lib/python3.8/site-packages/qiskit/aqua/components/initial_states/custom.py:151: DeprecationWarning: The StateVectorCircuit class is deprecated as of Qiskit Aqua 0.9.0 and will be removed no earlier than 3 months after the release. If you need to initialize a circuit, use the QuantumCircuit.initialize or QuantumCircuit.isometry methods. For a parameterized initialization, try the qiskit.ml.circuit.library.RawFeatureVector class.
  svc = StateVectorCircuit(self._state_vector)
Input matrix is not hermitian. It will be expanded to a hermitian matrix automatically.
Quantum Solution for A_7: 
 [-0.38268-0.j -0.92388-0.j]


Fidelity of Quantum Solution for A_7: 
 0.14644424061048475


A_8: 
 [[ 0.70710678  0.70710678]
 [-0.70710678  0.70710678]]


Classical Solution for A_8: 
 [[4.70405409e-16]
 [1.00000000e+00]]


/user/ajbecerr/.local/lib/python3.8/site-packages/qiskit/aqua/components/initial_states/custom.py:79: DeprecationWarning: The Custom class is deprecated as of Aqua 0.9 and will be removed no earlier than 3 months after the release date. Instead, all algorithms and circuits accept a plain QuantumCircuit. Custom(state_vector=vector) is the same as a circuit where the ``initialize(vector/np.linalg.norm(vector))`` method has been called.
  super().__init__()
/user/ajbecerr/.local/lib/python3.8/site-packages/qiskit/aqua/components/initial_states/custom.py:151: DeprecationWarning: The StateVectorCircuit class is deprecated as of Qiskit Aqua 0.9.0 and will be removed no earlier than 3 months after the release. If you need to initialize a circuit, use the QuantumCircuit.initialize or QuantumCircuit.isometry methods. For a parameterized initialization, try the qiskit.ml.circuit.library.RawFeatureVector class.
  svc = StateVectorCircuit(self._state_vector)
Input matrix is not hermitian. It will be expanded to a hermitian matrix automatically.
Quantum Solution for A_8: 
 [-0.92388-0.j -0.38268-0.j]


Fidelity of Quantum Solution for A_8: 
 0.1464442406104854


A_9: 
 [[-0.83146961  0.55557023]
 [-0.55557023 -0.83146961]]


Classical Solution for A_9: 
 [[-0.98078528]
 [-0.19509032]]


/user/ajbecerr/.local/lib/python3.8/site-packages/qiskit/aqua/components/initial_states/custom.py:79: DeprecationWarning: The Custom class is deprecated as of Aqua 0.9 and will be removed no earlier than 3 months after the release date. Instead, all algorithms and circuits accept a plain QuantumCircuit. Custom(state_vector=vector) is the same as a circuit where the ``initialize(vector/np.linalg.norm(vector))`` method has been called.
  super().__init__()
/user/ajbecerr/.local/lib/python3.8/site-packages/qiskit/aqua/components/initial_states/custom.py:151: DeprecationWarning: The StateVectorCircuit class is deprecated as of Qiskit Aqua 0.9.0 and will be removed no earlier than 3 months after the release. If you need to initialize a circuit, use the QuantumCircuit.initialize or QuantumCircuit.isometry methods. For a parameterized initialization, try the qiskit.ml.circuit.library.RawFeatureVector class.
  svc = StateVectorCircuit(self._state_vector)
Input matrix is not hermitian. It will be expanded to a hermitian matrix automatically.
Quantum Solution for A_9: 
 [ 0.88192-0.j -0.4714 +0.j]


Fidelity of Quantum Solution for A_9: 
 0.5975417538844026


A_10: 
 [[-0.19509032 -0.98078528]
 [ 0.98078528 -0.19509032]]


Classical Solution for A_10: 
 [[ 0.55557023]
 [-0.83146961]]


/user/ajbecerr/.local/lib/python3.8/site-packages/qiskit/aqua/components/initial_states/custom.py:79: DeprecationWarning: The Custom class is deprecated as of Aqua 0.9 and will be removed no earlier than 3 months after the release date. Instead, all algorithms and circuits accept a plain QuantumCircuit. Custom(state_vector=vector) is the same as a circuit where the ``initialize(vector/np.linalg.norm(vector))`` method has been called.
  super().__init__()
/user/ajbecerr/.local/lib/python3.8/site-packages/qiskit/aqua/components/initial_states/custom.py:151: DeprecationWarning: The StateVectorCircuit class is deprecated as of Qiskit Aqua 0.9.0 and will be removed no earlier than 3 months after the release. If you need to initialize a circuit, use the QuantumCircuit.initialize or QuantumCircuit.isometry methods. For a parameterized initialization, try the qiskit.ml.circuit.library.RawFeatureVector class.
  svc = StateVectorCircuit(self._state_vector)
Input matrix is not hermitian. It will be expanded to a hermitian matrix automatically.
Quantum Solution for A_10: 
 [-0.09802+0.j  0.99518-0.j]


Fidelity of Quantum Solution for A_10: 
 0.7777878680111697


A_11: 
 [[ 0.92387953  0.38268343]
 [-0.38268343  0.92387953]]


Classical Solution for A_11: 
 [[0.38268343]
 [0.92387953]]


/user/ajbecerr/.local/lib/python3.8/site-packages/qiskit/aqua/components/initial_states/custom.py:79: DeprecationWarning: The Custom class is deprecated as of Aqua 0.9 and will be removed no earlier than 3 months after the release date. Instead, all algorithms and circuits accept a plain QuantumCircuit. Custom(state_vector=vector) is the same as a circuit where the ``initialize(vector/np.linalg.norm(vector))`` method has been called.
  super().__init__()
/user/ajbecerr/.local/lib/python3.8/site-packages/qiskit/aqua/components/initial_states/custom.py:151: DeprecationWarning: The StateVectorCircuit class is deprecated as of Qiskit Aqua 0.9.0 and will be removed no earlier than 3 months after the release. If you need to initialize a circuit, use the QuantumCircuit.initialize or QuantumCircuit.isometry methods. For a parameterized initialization, try the qiskit.ml.circuit.library.RawFeatureVector class.
  svc = StateVectorCircuit(self._state_vector)
Input matrix is not hermitian. It will be expanded to a hermitian matrix automatically.
Quantum Solution for A_11: 
 [0.83147+0.j 0.55557+0.j]


Fidelity of Quantum Solution for A_11: 
 0.6913413381847423


A_12: 
 [[-0.92387953  0.38268343]
 [-0.38268343 -0.92387953]]


Classical Solution for A_12: 
 [[-0.92387953]
 [-0.38268343]]


/user/ajbecerr/.local/lib/python3.8/site-packages/qiskit/aqua/components/initial_states/custom.py:79: DeprecationWarning: The Custom class is deprecated as of Aqua 0.9 and will be removed no earlier than 3 months after the release date. Instead, all algorithms and circuits accept a plain QuantumCircuit. Custom(state_vector=vector) is the same as a circuit where the ``initialize(vector/np.linalg.norm(vector))`` method has been called.
  super().__init__()
/user/ajbecerr/.local/lib/python3.8/site-packages/qiskit/aqua/components/initial_states/custom.py:151: DeprecationWarning: The StateVectorCircuit class is deprecated as of Qiskit Aqua 0.9.0 and will be removed no earlier than 3 months after the release. If you need to initialize a circuit, use the QuantumCircuit.initialize or QuantumCircuit.isometry methods. For a parameterized initialization, try the qiskit.ml.circuit.library.RawFeatureVector class.
  svc = StateVectorCircuit(self._state_vector)
Input matrix is not hermitian. It will be expanded to a hermitian matrix automatically.
Quantum Solution for A_12: 
 [-0.83147+0.j  0.55557-0.j]


Fidelity of Quantum Solution for A_12: 
 0.30865866181525914


A_13: 
 [[ 0.55557023 -0.83146961]
 [ 0.83146961  0.55557023]]


Classical Solution for A_13: 
 [[ 0.98078528]
 [-0.19509032]]


/user/ajbecerr/.local/lib/python3.8/site-packages/qiskit/aqua/components/initial_states/custom.py:79: DeprecationWarning: The Custom class is deprecated as of Aqua 0.9 and will be removed no earlier than 3 months after the release date. Instead, all algorithms and circuits accept a plain QuantumCircuit. Custom(state_vector=vector) is the same as a circuit where the ``initialize(vector/np.linalg.norm(vector))`` method has been called.
  super().__init__()
/user/ajbecerr/.local/lib/python3.8/site-packages/qiskit/aqua/components/initial_states/custom.py:151: DeprecationWarning: The StateVectorCircuit class is deprecated as of Qiskit Aqua 0.9.0 and will be removed no earlier than 3 months after the release. If you need to initialize a circuit, use the QuantumCircuit.initialize or QuantumCircuit.isometry methods. For a parameterized initialization, try the qiskit.ml.circuit.library.RawFeatureVector class.
  svc = StateVectorCircuit(self._state_vector)
Input matrix is not hermitian. It will be expanded to a hermitian matrix automatically.
Quantum Solution for A_13: 
 [-0.29028+0.j -0.95694+0.j]


Fidelity of Quantum Solution for A_13: 
 0.009606505633156763


A_14: 
 [[-0.19509032  0.98078528]
 [-0.98078528 -0.19509032]]


Classical Solution for A_14: 
 [[-0.83146961]
 [ 0.55557023]]


/user/ajbecerr/.local/lib/python3.8/site-packages/qiskit/aqua/components/initial_states/custom.py:79: DeprecationWarning: The Custom class is deprecated as of Aqua 0.9 and will be removed no earlier than 3 months after the release date. Instead, all algorithms and circuits accept a plain QuantumCircuit. Custom(state_vector=vector) is the same as a circuit where the ``initialize(vector/np.linalg.norm(vector))`` method has been called.
  super().__init__()
/user/ajbecerr/.local/lib/python3.8/site-packages/qiskit/aqua/components/initial_states/custom.py:151: DeprecationWarning: The StateVectorCircuit class is deprecated as of Qiskit Aqua 0.9.0 and will be removed no earlier than 3 months after the release. If you need to initialize a circuit, use the QuantumCircuit.initialize or QuantumCircuit.isometry methods. For a parameterized initialization, try the qiskit.ml.circuit.library.RawFeatureVector class.
  svc = StateVectorCircuit(self._state_vector)
Input matrix is not hermitian. It will be expanded to a hermitian matrix automatically.
Quantum Solution for A_14: 
 [ 0.99518-0.j -0.09802+0.j]


Fidelity of Quantum Solution for A_14: 
 0.7777878680111684


A_15: 
 [[-1.28718551e-15 -1.00000000e+00]
 [ 1.00000000e+00 -1.34841785e-15]]


Classical Solution for A_15: 
 [[ 0.70710678]
 [-0.70710678]]


/user/ajbecerr/.local/lib/python3.8/site-packages/qiskit/aqua/components/initial_states/custom.py:79: DeprecationWarning: The Custom class is deprecated as of Aqua 0.9 and will be removed no earlier than 3 months after the release date. Instead, all algorithms and circuits accept a plain QuantumCircuit. Custom(state_vector=vector) is the same as a circuit where the ``initialize(vector/np.linalg.norm(vector))`` method has been called.
  super().__init__()
/user/ajbecerr/.local/lib/python3.8/site-packages/qiskit/aqua/components/initial_states/custom.py:151: DeprecationWarning: The StateVectorCircuit class is deprecated as of Qiskit Aqua 0.9.0 and will be removed no earlier than 3 months after the release. If you need to initialize a circuit, use the QuantumCircuit.initialize or QuantumCircuit.isometry methods. For a parameterized initialization, try the qiskit.ml.circuit.library.RawFeatureVector class.
  svc = StateVectorCircuit(self._state_vector)
Quantum Solution for A_15: 
 [0.     -0.j      0.91835+0.39578j]


Fidelity of Quantum Solution for A_15: 
 0.5000000000000013


