Input matrix is not hermitian. It will be expanded to a hermitian matrix automatically.
A_1: 
 [[0.5488135  0.71518937 0.60276338 0.54488318]
 [0.4236548  0.64589411 0.43758721 0.891773  ]
 [0.96366276 0.38344152 0.79172504 0.52889492]
 [0.56804456 0.92559664 0.07103606 0.0871293 ]]


b_1_1: 
 [[1.19450518]
 [1.12245995]
 [1.35490993]
 [0.82650199]]


Classical Solution for A_1 and b_1_1: 
 [[0.52354106]
 [0.49196427]
 [0.59384504]
 [0.36224851]]


Figure_S5_b.py:19: DeprecationWarning: The package qiskit.aqua.operators is deprecated. It was moved/refactored to qiskit.opflow (pip install qiskit-terra). For more information see <https://github.com/Qiskit/qiskit-aqua/blob/master/README.md#migration-guide>
  return EigsQPE(MatrixOperator(matrix=matrix),
/user/ajbecerr/.local/lib/python3.8/site-packages/qiskit/aqua/operators/legacy/op_converter.py:90: DeprecationWarning: The variable qiskit.aqua.aqua_globals is deprecated. It was moved/refactored to qiskit.utils.algorithm_globals (pip install qiskit-terra). For more information see <https://github.com/Qiskit/qiskit-aqua/blob/master/README.md#migration-guide>
  num_processes=aqua_globals.num_processes)
/user/ajbecerr/.local/lib/python3.8/site-packages/qiskit/aqua/components/initial_states/custom.py:79: DeprecationWarning: The Custom class is deprecated as of Aqua 0.9 and will be removed no earlier than 3 months after the release date. Instead, all algorithms and circuits accept a plain QuantumCircuit. Custom(state_vector=vector) is the same as a circuit where the ``initialize(vector/np.linalg.norm(vector))`` method has been called.
  super().__init__()
/user/ajbecerr/.local/lib/python3.8/site-packages/qiskit/aqua/components/initial_states/custom.py:151: DeprecationWarning: The StateVectorCircuit class is deprecated as of Qiskit Aqua 0.9.0 and will be removed no earlier than 3 months after the release. If you need to initialize a circuit, use the QuantumCircuit.initialize or QuantumCircuit.isometry methods. For a parameterized initialization, try the qiskit.ml.circuit.library.RawFeatureVector class.
  svc = StateVectorCircuit(self._state_vector)
/user/ajbecerr/.local/lib/python3.8/site-packages/qiskit/aqua/quantum_instance.py:135: DeprecationWarning: The class qiskit.aqua.QuantumInstance is deprecated. It was moved/refactored to qiskit.utils.QuantumInstance (pip install qiskit-terra). For more information see <https://github.com/Qiskit/qiskit-aqua/blob/master/README.md#migration-guide>
  warn_class('aqua.QuantumInstance',
Input matrix is not hermitian. It will be expanded to a hermitian matrix automatically.
Quantum Solution for A_1 and b_1_1: 
 [0.52026-0.j 0.51861-0.j 0.5424 -0.j 0.38404-0.j]


Fidelity of Quantum Solution for A_1 and b_1_1: 
 0.9962139325208096


b_1_2: 
 [[ 0.05186027]
 [-0.28664132]
 [-0.11873082]
 [ 0.40642628]]


Classical Solution for A_1 and b_1_2: 
 [[-0.10090767]
 [ 0.55773542]
 [ 0.23102177]
 [-0.79080831]]


/user/ajbecerr/.local/lib/python3.8/site-packages/qiskit/aqua/components/initial_states/custom.py:79: DeprecationWarning: The Custom class is deprecated as of Aqua 0.9 and will be removed no earlier than 3 months after the release date. Instead, all algorithms and circuits accept a plain QuantumCircuit. Custom(state_vector=vector) is the same as a circuit where the ``initialize(vector/np.linalg.norm(vector))`` method has been called.
  super().__init__()
/user/ajbecerr/.local/lib/python3.8/site-packages/qiskit/aqua/components/initial_states/custom.py:151: DeprecationWarning: The StateVectorCircuit class is deprecated as of Qiskit Aqua 0.9.0 and will be removed no earlier than 3 months after the release. If you need to initialize a circuit, use the QuantumCircuit.initialize or QuantumCircuit.isometry methods. For a parameterized initialization, try the qiskit.ml.circuit.library.RawFeatureVector class.
  svc = StateVectorCircuit(self._state_vector)
Input matrix is not hermitian. It will be expanded to a hermitian matrix automatically.
Quantum Solution for A_1 and b_1_2: 
 [ 0.02065-0.j -0.5204 +0.j -0.11061+0.j  0.73349-0.j]


Fidelity of Quantum Solution for A_1 and b_1_2: 
 0.9814946654992532


b_1_3: 
 [[-0.11850645]
 [ 0.09697852]
 [ 0.12861064]
 [-0.10143352]]


Classical Solution for A_1 and b_1_3: 
 [[ 0.5285094 ]
 [-0.43250014]
 [-0.57357157]
 [ 0.45236832]]


/user/ajbecerr/.local/lib/python3.8/site-packages/qiskit/aqua/components/initial_states/custom.py:79: DeprecationWarning: The Custom class is deprecated as of Aqua 0.9 and will be removed no earlier than 3 months after the release date. Instead, all algorithms and circuits accept a plain QuantumCircuit. Custom(state_vector=vector) is the same as a circuit where the ``initialize(vector/np.linalg.norm(vector))`` method has been called.
  super().__init__()
/user/ajbecerr/.local/lib/python3.8/site-packages/qiskit/aqua/components/initial_states/custom.py:151: DeprecationWarning: The StateVectorCircuit class is deprecated as of Qiskit Aqua 0.9.0 and will be removed no earlier than 3 months after the release. If you need to initialize a circuit, use the QuantumCircuit.initialize or QuantumCircuit.isometry methods. For a parameterized initialization, try the qiskit.ml.circuit.library.RawFeatureVector class.
  svc = StateVectorCircuit(self._state_vector)
Input matrix is not hermitian. It will be expanded to a hermitian matrix automatically.
Quantum Solution for A_1 and b_1_3: 
 [ 0.34507-0.j -0.34077+0.j -0.51207+0.j  0.51675-0.j]


Fidelity of Quantum Solution for A_1 and b_1_3: 
 0.9612693004621569


b_1_4: 
 [[-0.08399005]
 [ 0.1928982 ]
 [-0.43080399]
 [ 0.22625508]]


Classical Solution for A_1 and b_1_4: 
 [[-0.1584302 ]
 [ 0.36386336]
 [-0.81262442]
 [ 0.42678435]]


/user/ajbecerr/.local/lib/python3.8/site-packages/qiskit/aqua/components/initial_states/custom.py:79: DeprecationWarning: The Custom class is deprecated as of Aqua 0.9 and will be removed no earlier than 3 months after the release date. Instead, all algorithms and circuits accept a plain QuantumCircuit. Custom(state_vector=vector) is the same as a circuit where the ``initialize(vector/np.linalg.norm(vector))`` method has been called.
  super().__init__()
/user/ajbecerr/.local/lib/python3.8/site-packages/qiskit/aqua/components/initial_states/custom.py:151: DeprecationWarning: The StateVectorCircuit class is deprecated as of Qiskit Aqua 0.9.0 and will be removed no earlier than 3 months after the release. If you need to initialize a circuit, use the QuantumCircuit.initialize or QuantumCircuit.isometry methods. For a parameterized initialization, try the qiskit.ml.circuit.library.RawFeatureVector class.
  svc = StateVectorCircuit(self._state_vector)
Input matrix is not hermitian. It will be expanded to a hermitian matrix automatically.
Quantum Solution for A_1 and b_1_4: 
 [ 0.-0.20313j -0.+0.20738j  0.-0.6357j  -0.+0.25467j]


Fidelity of Quantum Solution for A_1 and b_1_4: 
 0.9709420479523981


A_2: 
 [[0.0202184  0.83261985 0.77815675 0.87001215]
 [0.97861834 0.79915856 0.46147936 0.78052918]
 [0.11827443 0.63992102 0.14335329 0.94466892]
 [0.52184832 0.41466194 0.26455561 0.77423369]]


b_2_1: 
 [[1.20618375+0.j]
 [1.51735259+0.j]
 [0.91483812+0.j]
 [0.95455025+0.j]]


Classical Solution for A_2 and b_2_1: 
 [[0.5140693 +0.j]
 [0.64668786+0.j]
 [0.3898993 +0.j]
 [0.4068244 +0.j]]


/user/ajbecerr/.local/lib/python3.8/site-packages/qiskit/aqua/components/initial_states/custom.py:79: DeprecationWarning: The Custom class is deprecated as of Aqua 0.9 and will be removed no earlier than 3 months after the release date. Instead, all algorithms and circuits accept a plain QuantumCircuit. Custom(state_vector=vector) is the same as a circuit where the ``initialize(vector/np.linalg.norm(vector))`` method has been called.
  super().__init__()
/user/ajbecerr/.local/lib/python3.8/site-packages/qiskit/aqua/components/initial_states/custom.py:151: DeprecationWarning: The StateVectorCircuit class is deprecated as of Qiskit Aqua 0.9.0 and will be removed no earlier than 3 months after the release. If you need to initialize a circuit, use the QuantumCircuit.initialize or QuantumCircuit.isometry methods. For a parameterized initialization, try the qiskit.ml.circuit.library.RawFeatureVector class.
  svc = StateVectorCircuit(self._state_vector)
Input matrix is not hermitian. It will be expanded to a hermitian matrix automatically.
Quantum Solution for A_2 and b_2_1: 
 [0.4961 -0.j 0.58146-0.j 0.48125-0.j 0.42277-0.j]


Fidelity of Quantum Solution for A_2 and b_2_1: 
 0.9868382133059309


b_2_2: 
 [[-0.05041755-0.28116993j]
 [-0.10121708+0.2222014j ]
 [ 0.26958582-0.19332897j]
 [-0.02332926+0.08321064j]]


Classical Solution for A_2 and b_2_2: 
 [[-0.24158654+5.06958880e-01j]
 [ 0.41627784-2.39024775e-01j]
 [-0.65218427-1.85615412e-16j]
 [ 0.13260429-1.06208921e-01j]]


/user/ajbecerr/.local/lib/python3.8/site-packages/qiskit/aqua/components/initial_states/custom.py:79: DeprecationWarning: The Custom class is deprecated as of Aqua 0.9 and will be removed no earlier than 3 months after the release date. Instead, all algorithms and circuits accept a plain QuantumCircuit. Custom(state_vector=vector) is the same as a circuit where the ``initialize(vector/np.linalg.norm(vector))`` method has been called.
  super().__init__()
/user/ajbecerr/.local/lib/python3.8/site-packages/qiskit/aqua/components/initial_states/custom.py:151: DeprecationWarning: The StateVectorCircuit class is deprecated as of Qiskit Aqua 0.9.0 and will be removed no earlier than 3 months after the release. If you need to initialize a circuit, use the QuantumCircuit.initialize or QuantumCircuit.isometry methods. For a parameterized initialization, try the qiskit.ml.circuit.library.RawFeatureVector class.
  svc = StateVectorCircuit(self._state_vector)
Input matrix is not hermitian. It will be expanded to a hermitian matrix automatically.
Quantum Solution for A_2 and b_2_2: 
 [ 0.0401 -0.49401j  0.28955+0.06569j -0.61941+0.20432j -0.00078+0.15533j]


Fidelity of Quantum Solution for A_2 and b_2_2: 
 0.07751007156973404


b_2_3: 
 [[-0.05041755+0.28116993j]
 [-0.10121708-0.2222014j ]
 [ 0.26958582+0.19332897j]
 [-0.02332926-0.08321064j]]


Classical Solution for A_2 and b_2_3: 
 [[-0.24158654-5.06958880e-01j]
 [ 0.41627784+2.39024775e-01j]
 [-0.65218427+1.85615412e-16j]
 [ 0.13260429+1.06208921e-01j]]


/user/ajbecerr/.local/lib/python3.8/site-packages/qiskit/aqua/components/initial_states/custom.py:79: DeprecationWarning: The Custom class is deprecated as of Aqua 0.9 and will be removed no earlier than 3 months after the release date. Instead, all algorithms and circuits accept a plain QuantumCircuit. Custom(state_vector=vector) is the same as a circuit where the ``initialize(vector/np.linalg.norm(vector))`` method has been called.
  super().__init__()
/user/ajbecerr/.local/lib/python3.8/site-packages/qiskit/aqua/components/initial_states/custom.py:151: DeprecationWarning: The StateVectorCircuit class is deprecated as of Qiskit Aqua 0.9.0 and will be removed no earlier than 3 months after the release. If you need to initialize a circuit, use the QuantumCircuit.initialize or QuantumCircuit.isometry methods. For a parameterized initialization, try the qiskit.ml.circuit.library.RawFeatureVector class.
  svc = StateVectorCircuit(self._state_vector)
Input matrix is not hermitian. It will be expanded to a hermitian matrix automatically.
Quantum Solution for A_2 and b_2_3: 
 [ 0.0401 +0.49401j  0.28955-0.06569j -0.61941-0.20432j -0.00078-0.15533j]


Fidelity of Quantum Solution for A_2 and b_2_3: 
 0.07751007156973404


b_2_4: 
 [[-0.01572127+0.j]
 [-0.17315844+0.j]
 [ 0.04409007+0.j]
 [ 0.12271924+0.j]]


Classical Solution for A_2 and b_2_4: 
 [[-0.07233623+0.j]
 [-0.7967314 +0.j]
 [ 0.20286588+0.j]
 [ 0.56465208+0.j]]


/user/ajbecerr/.local/lib/python3.8/site-packages/qiskit/aqua/components/initial_states/custom.py:79: DeprecationWarning: The Custom class is deprecated as of Aqua 0.9 and will be removed no earlier than 3 months after the release date. Instead, all algorithms and circuits accept a plain QuantumCircuit. Custom(state_vector=vector) is the same as a circuit where the ``initialize(vector/np.linalg.norm(vector))`` method has been called.
  super().__init__()
/user/ajbecerr/.local/lib/python3.8/site-packages/qiskit/aqua/components/initial_states/custom.py:151: DeprecationWarning: The StateVectorCircuit class is deprecated as of Qiskit Aqua 0.9.0 and will be removed no earlier than 3 months after the release. If you need to initialize a circuit, use the QuantumCircuit.initialize or QuantumCircuit.isometry methods. For a parameterized initialization, try the qiskit.ml.circuit.library.RawFeatureVector class.
  svc = StateVectorCircuit(self._state_vector)
Input matrix is not hermitian. It will be expanded to a hermitian matrix automatically.
Quantum Solution for A_2 and b_2_4: 
 [-0.-0.13099j -0.-0.69064j  0.+0.23272j  0.+0.51843j]


Fidelity of Quantum Solution for A_2 and b_2_4: 
 0.9906275157480087


A_3: 
 [[0.45615033 0.56843395 0.0187898  0.6176355 ]
 [0.61209572 0.616934   0.94374808 0.6818203 ]
 [0.3595079  0.43703195 0.6976312  0.06022547]
 [0.66676672 0.67063787 0.21038256 0.1289263 ]]


b_3_1: 
 [[-0.87169066]
 [-1.3500929 ]
 [-0.74541848]
 [-0.88723357]]


Classical Solution for A_3 and b_3_1: 
 [[-0.43996579]
 [-0.68142831]
 [-0.37623282]
 [-0.44781072]]


/user/ajbecerr/.local/lib/python3.8/site-packages/qiskit/aqua/components/initial_states/custom.py:79: DeprecationWarning: The Custom class is deprecated as of Aqua 0.9 and will be removed no earlier than 3 months after the release date. Instead, all algorithms and circuits accept a plain QuantumCircuit. Custom(state_vector=vector) is the same as a circuit where the ``initialize(vector/np.linalg.norm(vector))`` method has been called.
  super().__init__()
/user/ajbecerr/.local/lib/python3.8/site-packages/qiskit/aqua/components/initial_states/custom.py:151: DeprecationWarning: The StateVectorCircuit class is deprecated as of Qiskit Aqua 0.9.0 and will be removed no earlier than 3 months after the release. If you need to initialize a circuit, use the QuantumCircuit.initialize or QuantumCircuit.isometry methods. For a parameterized initialization, try the qiskit.ml.circuit.library.RawFeatureVector class.
  svc = StateVectorCircuit(self._state_vector)
Input matrix is not hermitian. It will be expanded to a hermitian matrix automatically.
Quantum Solution for A_3 and b_3_1: 
 [0.37117-0.j 0.71709-0.j 0.42788-0.j 0.42258-0.j]


Fidelity of Quantum Solution for A_3 and b_3_1: 
 0.9908212548387578


b_3_2: 
 [[ 0.0664781 ]
 [ 0.2762252 ]
 [-0.10643277]
 [-0.34992897]]


Classical Solution for A_3 and b_3_2: 
 [[-0.14353806]
 [-0.59641939]
 [ 0.2298073 ]
 [ 0.75555896]]


/user/ajbecerr/.local/lib/python3.8/site-packages/qiskit/aqua/components/initial_states/custom.py:79: DeprecationWarning: The Custom class is deprecated as of Aqua 0.9 and will be removed no earlier than 3 months after the release date. Instead, all algorithms and circuits accept a plain QuantumCircuit. Custom(state_vector=vector) is the same as a circuit where the ``initialize(vector/np.linalg.norm(vector))`` method has been called.
  super().__init__()
/user/ajbecerr/.local/lib/python3.8/site-packages/qiskit/aqua/components/initial_states/custom.py:151: DeprecationWarning: The StateVectorCircuit class is deprecated as of Qiskit Aqua 0.9.0 and will be removed no earlier than 3 months after the release. If you need to initialize a circuit, use the QuantumCircuit.initialize or QuantumCircuit.isometry methods. For a parameterized initialization, try the qiskit.ml.circuit.library.RawFeatureVector class.
  svc = StateVectorCircuit(self._state_vector)
Input matrix is not hermitian. It will be expanded to a hermitian matrix automatically.
Quantum Solution for A_3 and b_3_2: 
 [ 0.13117-0.j  0.57325-0.j -0.21636+0.j -0.77335+0.j]


Fidelity of Quantum Solution for A_3 and b_3_2: 
 0.9988294560656767


b_3_3: 
 [[-0.07336171]
 [ 0.07700259]
 [-0.00876836]
 [-0.00373768]]


Classical Solution for A_3 and b_3_3: 
 [[ 0.68702926]
 [-0.72112596]
 [ 0.08211531]
 [ 0.03500319]]


/user/ajbecerr/.local/lib/python3.8/site-packages/qiskit/aqua/components/initial_states/custom.py:79: DeprecationWarning: The Custom class is deprecated as of Aqua 0.9 and will be removed no earlier than 3 months after the release date. Instead, all algorithms and circuits accept a plain QuantumCircuit. Custom(state_vector=vector) is the same as a circuit where the ``initialize(vector/np.linalg.norm(vector))`` method has been called.
  super().__init__()
/user/ajbecerr/.local/lib/python3.8/site-packages/qiskit/aqua/components/initial_states/custom.py:151: DeprecationWarning: The StateVectorCircuit class is deprecated as of Qiskit Aqua 0.9.0 and will be removed no earlier than 3 months after the release. If you need to initialize a circuit, use the QuantumCircuit.initialize or QuantumCircuit.isometry methods. For a parameterized initialization, try the qiskit.ml.circuit.library.RawFeatureVector class.
  svc = StateVectorCircuit(self._state_vector)
Input matrix is not hermitian. It will be expanded to a hermitian matrix automatically.
Quantum Solution for A_3 and b_3_3: 
 [-0.73918+0.j  0.71674-0.j  0.05467-0.j -0.15852+0.j]


Fidelity of Quantum Solution for A_3 and b_3_3: 
 0.9668797818829646


b_3_4: 
 [[ 0.32122111]
 [-0.14120938]
 [-0.30168858]
 [ 0.15585526]]


Classical Solution for A_3 and b_3_4: 
 [[ 0.65784515]
 [-0.2891899 ]
 [-0.61784348]
 [ 0.31918396]]


/user/ajbecerr/.local/lib/python3.8/site-packages/qiskit/aqua/components/initial_states/custom.py:79: DeprecationWarning: The Custom class is deprecated as of Aqua 0.9 and will be removed no earlier than 3 months after the release date. Instead, all algorithms and circuits accept a plain QuantumCircuit. Custom(state_vector=vector) is the same as a circuit where the ``initialize(vector/np.linalg.norm(vector))`` method has been called.
  super().__init__()
/user/ajbecerr/.local/lib/python3.8/site-packages/qiskit/aqua/components/initial_states/custom.py:151: DeprecationWarning: The StateVectorCircuit class is deprecated as of Qiskit Aqua 0.9.0 and will be removed no earlier than 3 months after the release. If you need to initialize a circuit, use the QuantumCircuit.initialize or QuantumCircuit.isometry methods. For a parameterized initialization, try the qiskit.ml.circuit.library.RawFeatureVector class.
  svc = StateVectorCircuit(self._state_vector)
Input matrix is not hermitian. It will be expanded to a hermitian matrix automatically.
Quantum Solution for A_3 and b_3_4: 
 [ 0.63234-0.j -0.29947+0.j -0.62298+0.j  0.31298-0.j]


Fidelity of Quantum Solution for A_3 and b_3_4: 
 0.9993214420503854


A_4: 
 [[0.31542835 0.36371077 0.57019677 0.43860151]
 [0.98837384 0.10204481 0.20887676 0.16130952]
 [0.65310833 0.2532916  0.46631077 0.24442559]
 [0.15896958 0.11037514 0.65632959 0.13818295]]


b_4_1: 
 [[-0.83382095+0.j]
 [-0.77023194+0.j]
 [-0.83500262+0.j]
 [-0.55609905+0.j]]


Classical Solution for A_4 and b_4_1: 
 [[-0.55040502+0.j]
 [-0.50842994+0.j]
 [-0.55118504+0.j]
 [-0.36708086+0.j]]


/user/ajbecerr/.local/lib/python3.8/site-packages/qiskit/aqua/components/initial_states/custom.py:79: DeprecationWarning: The Custom class is deprecated as of Aqua 0.9 and will be removed no earlier than 3 months after the release date. Instead, all algorithms and circuits accept a plain QuantumCircuit. Custom(state_vector=vector) is the same as a circuit where the ``initialize(vector/np.linalg.norm(vector))`` method has been called.
  super().__init__()
/user/ajbecerr/.local/lib/python3.8/site-packages/qiskit/aqua/components/initial_states/custom.py:151: DeprecationWarning: The StateVectorCircuit class is deprecated as of Qiskit Aqua 0.9.0 and will be removed no earlier than 3 months after the release. If you need to initialize a circuit, use the QuantumCircuit.initialize or QuantumCircuit.isometry methods. For a parameterized initialization, try the qiskit.ml.circuit.library.RawFeatureVector class.
  svc = StateVectorCircuit(self._state_vector)
Input matrix is not hermitian. It will be expanded to a hermitian matrix automatically.
Quantum Solution for A_4 and b_4_1: 
 [0.50187-0.j 0.59045-0.j 0.56947-0.j 0.36746-0.j]


Fidelity of Quantum Solution for A_4 and b_4_1: 
 0.991713628463386


b_4_2: 
 [[ 0.16230781-0.j]
 [-0.3359015 +0.j]
 [-0.04809066+0.j]
 [ 0.08188355-0.j]]


Classical Solution for A_4 and b_4_2: 
 [[-0.4216267 +0.j]
 [ 0.87257071+0.j]
 [ 0.12492501+0.j]
 [-0.21270876+0.j]]


/user/ajbecerr/.local/lib/python3.8/site-packages/qiskit/aqua/components/initial_states/custom.py:79: DeprecationWarning: The Custom class is deprecated as of Aqua 0.9 and will be removed no earlier than 3 months after the release date. Instead, all algorithms and circuits accept a plain QuantumCircuit. Custom(state_vector=vector) is the same as a circuit where the ``initialize(vector/np.linalg.norm(vector))`` method has been called.
  super().__init__()
/user/ajbecerr/.local/lib/python3.8/site-packages/qiskit/aqua/components/initial_states/custom.py:151: DeprecationWarning: The StateVectorCircuit class is deprecated as of Qiskit Aqua 0.9.0 and will be removed no earlier than 3 months after the release. If you need to initialize a circuit, use the QuantumCircuit.initialize or QuantumCircuit.isometry methods. For a parameterized initialization, try the qiskit.ml.circuit.library.RawFeatureVector class.
  svc = StateVectorCircuit(self._state_vector)
Input matrix is not hermitian. It will be expanded to a hermitian matrix automatically.
Quantum Solution for A_4 and b_4_2: 
 [-0.42093+0.j  0.85683-0.j  0.13877-0.j -0.33194+0.j]


Fidelity of Quantum Solution for A_4 and b_4_2: 
 0.9860821823525909


b_4_3: 
 [[ 0.01454198+0.00758969j]
 [ 0.03749881-0.09455586j]
 [-0.0272643 -0.01691237j]
 [-0.01025615+0.09851907j]]


Classical Solution for A_4 and b_4_3: 
 [[ 0.01156658-1.11384601e-01j]
 [-0.69442614+4.44089210e-16j]
 [-0.0387103 +2.15582995e-01j]
 [ 0.65101534-1.82856596e-01j]]


/user/ajbecerr/.local/lib/python3.8/site-packages/qiskit/aqua/components/initial_states/custom.py:79: DeprecationWarning: The Custom class is deprecated as of Aqua 0.9 and will be removed no earlier than 3 months after the release date. Instead, all algorithms and circuits accept a plain QuantumCircuit. Custom(state_vector=vector) is the same as a circuit where the ``initialize(vector/np.linalg.norm(vector))`` method has been called.
  super().__init__()
/user/ajbecerr/.local/lib/python3.8/site-packages/qiskit/aqua/components/initial_states/custom.py:151: DeprecationWarning: The StateVectorCircuit class is deprecated as of Qiskit Aqua 0.9.0 and will be removed no earlier than 3 months after the release. If you need to initialize a circuit, use the QuantumCircuit.initialize or QuantumCircuit.isometry methods. For a parameterized initialization, try the qiskit.ml.circuit.library.RawFeatureVector class.
  svc = StateVectorCircuit(self._state_vector)
Input matrix is not hermitian. It will be expanded to a hermitian matrix automatically.
Quantum Solution for A_4 and b_4_3: 
 [-0.13565-0.02455j  0.47403-0.19354j  0.11629+0.04924j -0.37488+0.05047j]


Fidelity of Quantum Solution for A_4 and b_4_3: 
 0.7587691432179811


b_4_4: 
 [[ 0.01454198-0.00758969j]
 [ 0.03749881+0.09455586j]
 [-0.0272643 +0.01691237j]
 [-0.01025615-0.09851907j]]


Classical Solution for A_4 and b_4_4: 
 [[ 0.01156658+1.11384601e-01j]
 [-0.69442614-4.44089210e-16j]
 [-0.0387103 -2.15582995e-01j]
 [ 0.65101534+1.82856596e-01j]]


/user/ajbecerr/.local/lib/python3.8/site-packages/qiskit/aqua/components/initial_states/custom.py:79: DeprecationWarning: The Custom class is deprecated as of Aqua 0.9 and will be removed no earlier than 3 months after the release date. Instead, all algorithms and circuits accept a plain QuantumCircuit. Custom(state_vector=vector) is the same as a circuit where the ``initialize(vector/np.linalg.norm(vector))`` method has been called.
  super().__init__()
/user/ajbecerr/.local/lib/python3.8/site-packages/qiskit/aqua/components/initial_states/custom.py:151: DeprecationWarning: The StateVectorCircuit class is deprecated as of Qiskit Aqua 0.9.0 and will be removed no earlier than 3 months after the release. If you need to initialize a circuit, use the QuantumCircuit.initialize or QuantumCircuit.isometry methods. For a parameterized initialization, try the qiskit.ml.circuit.library.RawFeatureVector class.
  svc = StateVectorCircuit(self._state_vector)
Input matrix is not hermitian. It will be expanded to a hermitian matrix automatically.
Quantum Solution for A_4 and b_4_4: 
 [-0.13565+0.02455j  0.47403+0.19354j  0.11629-0.04924j -0.37488-0.05047j]


Fidelity of Quantum Solution for A_4 and b_4_4: 
 0.7587691432179811


A_5: 
 [[0.19658236 0.36872517 0.82099323 0.09710128]
 [0.83794491 0.09609841 0.97645947 0.4686512 ]
 [0.97676109 0.60484552 0.73926358 0.03918779]
 [0.28280696 0.12019656 0.2961402  0.11872772]]


b_5_1: 
 [[-0.85482745]
 [-1.15283178]
 [-1.26905582]
 [-0.41080663]]


Classical Solution for A_5 and b_5_1: 
 [[-0.43628322]
 [-0.58837741]
 [-0.64769534]
 [-0.20966575]]


/user/ajbecerr/.local/lib/python3.8/site-packages/qiskit/aqua/components/initial_states/custom.py:79: DeprecationWarning: The Custom class is deprecated as of Aqua 0.9 and will be removed no earlier than 3 months after the release date. Instead, all algorithms and circuits accept a plain QuantumCircuit. Custom(state_vector=vector) is the same as a circuit where the ``initialize(vector/np.linalg.norm(vector))`` method has been called.
  super().__init__()
/user/ajbecerr/.local/lib/python3.8/site-packages/qiskit/aqua/components/initial_states/custom.py:151: DeprecationWarning: The StateVectorCircuit class is deprecated as of Qiskit Aqua 0.9.0 and will be removed no earlier than 3 months after the release. If you need to initialize a circuit, use the QuantumCircuit.initialize or QuantumCircuit.isometry methods. For a parameterized initialization, try the qiskit.ml.circuit.library.RawFeatureVector class.
  svc = StateVectorCircuit(self._state_vector)
Input matrix is not hermitian. It will be expanded to a hermitian matrix automatically.
Quantum Solution for A_5 and b_5_1: 
 [0.37775-0.j 0.71788-0.j 0.63598-0.j 0.23377-0.j]


Fidelity of Quantum Solution for A_5 and b_5_1: 
 0.983351362370643


b_5_2: 
 [[-0.00502889]
 [ 0.0191032 ]
 [-0.01112757]
 [ 0.02978516]]


Classical Solution for A_5 and b_5_2: 
 [[-0.13434517]
 [ 0.51033569]
 [-0.29726941]
 [ 0.7957008 ]]


/user/ajbecerr/.local/lib/python3.8/site-packages/qiskit/aqua/components/initial_states/custom.py:79: DeprecationWarning: The Custom class is deprecated as of Aqua 0.9 and will be removed no earlier than 3 months after the release date. Instead, all algorithms and circuits accept a plain QuantumCircuit. Custom(state_vector=vector) is the same as a circuit where the ``initialize(vector/np.linalg.norm(vector))`` method has been called.
  super().__init__()
/user/ajbecerr/.local/lib/python3.8/site-packages/qiskit/aqua/components/initial_states/custom.py:151: DeprecationWarning: The StateVectorCircuit class is deprecated as of Qiskit Aqua 0.9.0 and will be removed no earlier than 3 months after the release. If you need to initialize a circuit, use the QuantumCircuit.initialize or QuantumCircuit.isometry methods. For a parameterized initialization, try the qiskit.ml.circuit.library.RawFeatureVector class.
  svc = StateVectorCircuit(self._state_vector)
Input matrix is not hermitian. It will be expanded to a hermitian matrix automatically.
Quantum Solution for A_5 and b_5_2: 
 [-0.03316+0.j  0.11531-0.j -0.07763+0.j  0.13168-0.j]


Fidelity of Quantum Solution for A_5 and b_5_2: 
 0.9676612767716277


b_5_3: 
 [[-0.37378673]
 [ 0.05799134]
 [ 0.27254067]
 [ 0.03076819]]


Classical Solution for A_5 and b_5_3: 
 [[ 0.80000448]
 [-0.12411713]
 [-0.5833106 ]
 [-0.06585222]]


/user/ajbecerr/.local/lib/python3.8/site-packages/qiskit/aqua/components/initial_states/custom.py:79: DeprecationWarning: The Custom class is deprecated as of Aqua 0.9 and will be removed no earlier than 3 months after the release date. Instead, all algorithms and circuits accept a plain QuantumCircuit. Custom(state_vector=vector) is the same as a circuit where the ``initialize(vector/np.linalg.norm(vector))`` method has been called.
  super().__init__()
/user/ajbecerr/.local/lib/python3.8/site-packages/qiskit/aqua/components/initial_states/custom.py:151: DeprecationWarning: The StateVectorCircuit class is deprecated as of Qiskit Aqua 0.9.0 and will be removed no earlier than 3 months after the release. If you need to initialize a circuit, use the QuantumCircuit.initialize or QuantumCircuit.isometry methods. For a parameterized initialization, try the qiskit.ml.circuit.library.RawFeatureVector class.
  svc = StateVectorCircuit(self._state_vector)
Input matrix is not hermitian. It will be expanded to a hermitian matrix automatically.
Quantum Solution for A_5 and b_5_3: 
 [ 0.77346-0.j -0.04754+0.j -0.52624+0.j -0.04714+0.j]


Fidelity of Quantum Solution for A_5 and b_5_3: 
 0.9932738219304486


b_5_4: 
 [[-0.16242085]
 [ 0.33780234]
 [-0.04210012]
 [ 0.03576903]]


Classical Solution for A_5 and b_5_4: 
 [[ 0.42869762]
 [-0.89160389]
 [ 0.11112011]
 [-0.09440968]]


/user/ajbecerr/.local/lib/python3.8/site-packages/qiskit/aqua/components/initial_states/custom.py:79: DeprecationWarning: The Custom class is deprecated as of Aqua 0.9 and will be removed no earlier than 3 months after the release date. Instead, all algorithms and circuits accept a plain QuantumCircuit. Custom(state_vector=vector) is the same as a circuit where the ``initialize(vector/np.linalg.norm(vector))`` method has been called.
  super().__init__()
/user/ajbecerr/.local/lib/python3.8/site-packages/qiskit/aqua/components/initial_states/custom.py:151: DeprecationWarning: The StateVectorCircuit class is deprecated as of Qiskit Aqua 0.9.0 and will be removed no earlier than 3 months after the release. If you need to initialize a circuit, use the QuantumCircuit.initialize or QuantumCircuit.isometry methods. For a parameterized initialization, try the qiskit.ml.circuit.library.RawFeatureVector class.
  svc = StateVectorCircuit(self._state_vector)
Input matrix is not hermitian. It will be expanded to a hermitian matrix automatically.
Quantum Solution for A_5 and b_5_4: 
 [-0.+0.31954j  0.-0.5311j  -0.+0.16821j  0.-0.05577j]


Fidelity of Quantum Solution for A_5 and b_5_4: 
 0.968667323786192


A_6: 
 [[0.31798318 0.41426299 0.0641475  0.69247212]
 [0.56660145 0.26538949 0.52324805 0.09394051]
 [0.5759465  0.9292962  0.31856895 0.66741038]
 [0.13179786 0.7163272  0.28940609 0.18319136]]


b_6_1: 
 [[-0.63280723+0.j]
 [-0.74176731+0.j]
 [-1.13396569+0.j]
 [-0.65121524+0.j]]


Classical Solution for A_6 and b_6_1: 
 [[-0.38795356+0.j]
 [-0.45475345+0.j]
 [-0.69519754+0.j]
 [-0.39923892+0.j]]


/user/ajbecerr/.local/lib/python3.8/site-packages/qiskit/aqua/components/initial_states/custom.py:79: DeprecationWarning: The Custom class is deprecated as of Aqua 0.9 and will be removed no earlier than 3 months after the release date. Instead, all algorithms and circuits accept a plain QuantumCircuit. Custom(state_vector=vector) is the same as a circuit where the ``initialize(vector/np.linalg.norm(vector))`` method has been called.
  super().__init__()
/user/ajbecerr/.local/lib/python3.8/site-packages/qiskit/aqua/components/initial_states/custom.py:151: DeprecationWarning: The StateVectorCircuit class is deprecated as of Qiskit Aqua 0.9.0 and will be removed no earlier than 3 months after the release. If you need to initialize a circuit, use the QuantumCircuit.initialize or QuantumCircuit.isometry methods. For a parameterized initialization, try the qiskit.ml.circuit.library.RawFeatureVector class.
  svc = StateVectorCircuit(self._state_vector)
Input matrix is not hermitian. It will be expanded to a hermitian matrix automatically.
Quantum Solution for A_6 and b_6_1: 
 [0.46975-0.j 0.34658-0.j 0.76738-0.j 0.42059-0.j]


Fidelity of Quantum Solution for A_6 and b_6_1: 
 0.9797957061824075


b_6_2: 
 [[ 0.2098633 +0.01701178j]
 [-0.07106119-0.20999006j]
 [-0.00325186+0.08543624j]
 [-0.12367248+0.20920541j]]


Classical Solution for A_6 and b_6_2: 
 [[-0.23048861-4.73509625e-01j]
 [-0.36168216+4.20279912e-01j]
 [ 0.18809184-1.01742738e-01j]
 [ 0.60785222-4.71844785e-16j]]


/user/ajbecerr/.local/lib/python3.8/site-packages/qiskit/aqua/components/initial_states/custom.py:79: DeprecationWarning: The Custom class is deprecated as of Aqua 0.9 and will be removed no earlier than 3 months after the release date. Instead, all algorithms and circuits accept a plain QuantumCircuit. Custom(state_vector=vector) is the same as a circuit where the ``initialize(vector/np.linalg.norm(vector))`` method has been called.
  super().__init__()
/user/ajbecerr/.local/lib/python3.8/site-packages/qiskit/aqua/components/initial_states/custom.py:151: DeprecationWarning: The StateVectorCircuit class is deprecated as of Qiskit Aqua 0.9.0 and will be removed no earlier than 3 months after the release. If you need to initialize a circuit, use the QuantumCircuit.initialize or QuantumCircuit.isometry methods. For a parameterized initialization, try the qiskit.ml.circuit.library.RawFeatureVector class.
  svc = StateVectorCircuit(self._state_vector)
Input matrix is not hermitian. It will be expanded to a hermitian matrix automatically.
Quantum Solution for A_6 and b_6_2: 
 [-0.19526+0.42885j  0.07916-0.48877j  0.09532+0.17015j  0.23883+0.0835j ]


Fidelity of Quantum Solution for A_6 and b_6_2: 
 0.1100892740989704


b_6_3: 
 [[ 0.2098633 -0.01701178j]
 [-0.07106119+0.20999006j]
 [-0.00325186-0.08543624j]
 [-0.12367248-0.20920541j]]


Classical Solution for A_6 and b_6_3: 
 [[-0.23048861+4.73509625e-01j]
 [-0.36168216-4.20279912e-01j]
 [ 0.18809184+1.01742738e-01j]
 [ 0.60785222+4.71844785e-16j]]


/user/ajbecerr/.local/lib/python3.8/site-packages/qiskit/aqua/components/initial_states/custom.py:79: DeprecationWarning: The Custom class is deprecated as of Aqua 0.9 and will be removed no earlier than 3 months after the release date. Instead, all algorithms and circuits accept a plain QuantumCircuit. Custom(state_vector=vector) is the same as a circuit where the ``initialize(vector/np.linalg.norm(vector))`` method has been called.
  super().__init__()
/user/ajbecerr/.local/lib/python3.8/site-packages/qiskit/aqua/components/initial_states/custom.py:151: DeprecationWarning: The StateVectorCircuit class is deprecated as of Qiskit Aqua 0.9.0 and will be removed no earlier than 3 months after the release. If you need to initialize a circuit, use the QuantumCircuit.initialize or QuantumCircuit.isometry methods. For a parameterized initialization, try the qiskit.ml.circuit.library.RawFeatureVector class.
  svc = StateVectorCircuit(self._state_vector)
Input matrix is not hermitian. It will be expanded to a hermitian matrix automatically.
Quantum Solution for A_6 and b_6_3: 
 [-0.19526-0.42885j  0.07916+0.48877j  0.09532-0.17015j  0.23883-0.0835j ]


Fidelity of Quantum Solution for A_6 and b_6_3: 
 0.1100892740989704


b_6_4: 
 [[-0.05787003+0.j]
 [-0.05581043+0.j]
 [ 0.09452753-0.j]
 [ 0.0628292 -0.j]]


Classical Solution for A_6 and b_6_4: 
 [[ 0.41605444+0.j]
 [ 0.40124706+0.j]
 [-0.67960221+0.j]
 [-0.45170825+0.j]]


/user/ajbecerr/.local/lib/python3.8/site-packages/qiskit/aqua/components/initial_states/custom.py:79: DeprecationWarning: The Custom class is deprecated as of Aqua 0.9 and will be removed no earlier than 3 months after the release date. Instead, all algorithms and circuits accept a plain QuantumCircuit. Custom(state_vector=vector) is the same as a circuit where the ``initialize(vector/np.linalg.norm(vector))`` method has been called.
  super().__init__()
/user/ajbecerr/.local/lib/python3.8/site-packages/qiskit/aqua/components/initial_states/custom.py:151: DeprecationWarning: The StateVectorCircuit class is deprecated as of Qiskit Aqua 0.9.0 and will be removed no earlier than 3 months after the release. If you need to initialize a circuit, use the QuantumCircuit.initialize or QuantumCircuit.isometry methods. For a parameterized initialization, try the qiskit.ml.circuit.library.RawFeatureVector class.
  svc = StateVectorCircuit(self._state_vector)
Quantum Solution for A_6 and b_6_4: 
 [-0.12498-0.j -0.18139-0.j  0.40089+0.j  0.23002+0.j]


Fidelity of Quantum Solution for A_6 and b_6_4: 
 0.9579822899805404


